{
  "data": [
    {
      "answer": "Peneliti berinisiatif membuat sebuah mobile Application konsultasi kelinik kecantikan,\nBerbasis android untuk mempermudah masyarakat menanyakan informasi produk ataupun keluhan secara efisien,\nmudah dan nyaman.",
      "ask": "Latar belakang pembuatan aplikasi"
    },
    {
      "ask": "Tujuan pembuatan aplikasi",
      "answer": "1.Membuat aplikasi, untuk mempermudah konsumen dalam menanyakan produk secara online.\n2.Membuat aplikasi untuk mempermudah penyampaian informasi kepada konsumen."
    },
    {
      "ask": "Tentang Pengembang",
      "answer": "NAMA : AMALIA AFRIZAL\nTANGGAL LAHIR : BENGKULU 04 DESEMBER 1997\nALAMAT : KP PITARA GG. MANUK RT 05 RW 014 KEL NO 38 PANCORAN\nMAS KEC PANCORAN MAS DEPOK JAWA BARAT.\nJENIS KELAMIN : PEREMPUAN\nUMUR : 23 TAHUN\nTelepon : 6288976906650\nEMAIL : amaliaafrizal.aa@gmail.com"
    }
  ]
}