{
  "data": [
    {
      "id": 1,
      "nama": "Berjerawat",
      "penyebab": "Faktor munculnya jerawat juga beragam, mulai dari gaya hidup, pola diet yang kurang tepat, salah menggunakan perawatan wajah, hingga genetik.",
      "solusi": "Solusinya, di pagi hari gunakan sabun wajah yang mengandung asam salisilat untuk membuka pori-pori. Di malam hari gunakan pembersih asam salisilat lalu lanjutkan dengan retinoid acid.",
      "rekomendasi": "Facial foam Perfect Whip Acne Care"
    },
    {
      "id": 2,
      "nama": "Milia",
      "penyebab": "Faktor, seperti kulit mati yang menjalar dan terperangkap di pori-pori dekat permukaan kulit, penyumbatan saluran keringat, merokok, kurang tidur, kondisi kulit yang tidak dibersihkan dengan baik, hingga infeksi kulit.",
      "solusi": "mencegahnya kamu perlu memakai sunscreen, mengonsumsi makanan bergizi, pakai retinol (vitamin A di dalam retinol membantu mengeksfoliasi kulit & membantu regenerasi sel pada kulit), dan tentunya membersihkan wajah (dengan metode double cleansing).",
      "rekomendasi": "La Roche-Posay Ultra Fine Facial Scrub For Sensitive Skin"
    },
    {
      "id": 3,
      "nama": "Hiperpigmentasi atau flek hitam",
      "penyebab": "Munculnya flek hitam ini tidak memandang usia, karena hal ini disebabkan penumpukan zat melanin pada kulit wajah.",
      "solusi": "Tabir surya ada-lah cara pencegahan terbaik untuk menghindari berbagai masalah kulit, termasuk bintik-bintik hitam",
      "rekomendasi": "CeraVe Skin Renewing Vitamin C Serum, Neutrogena Rapid Tone Repair Dark Spot Correcto"
    },
    {
      "id": 4,
      "nama": "Warna Kulit Tidak Merata",
      "penyebab": "Faktor warna kulit wajah tidak merata disebabkan oleh hormon, faktor usia, paparan sinar UV, hingga pemakaian produk kosmetik atau obat-obatan tertentu.",
      "solusi": "mengatasinya dengan rutin eksfoliasi setidaknya seminggu sekali, memakai sunscreen, memakai produk perawatan wajah yang mengandung retinol, vitamin C, dan bahan-bahan alami, seperti aloe vera, royal jelly, serta menggunakan perawatan medis lainnya bila perlu.",
      "rekomendasi": "Facial cleanser A.L.L. Clear Water White, facial foam Perfect Whip White, dan deretan sheet mask Senka, seperti Soothing White, Extra White, Luminous Moist, dan Bouncy Bright"
    },
    {
      "id": 5,
      "nama": "Kerutan Dan Garis Halus",
      "penyebab": "Penyebab dari adanya garis halus pada wajah biasanya dari ekspresi wajah, seperti tersenyum, tertawa, mengerutkan alis, mengerutkan dahi, ekspresi wajah lainnya yang menciptakan lipatan di wajah, dan penambahan usia.",
      "solusi": "mengonsumsi makanan bergizi, minum air dan istirahat cukup, menghindari paparan sinar UV berlebih, pakai sunscreen menggunakan perawatan kulit wajah yang tepat, hingga menjaga kebersihan wajah dengan metode double cleansing.",
      "rekomendasi": "L’oreal Revitalift Night Essence atau SK-II R.N.A. Power"
    },
    {
      "id": 6,
      "nama": "Kulit Kusam",
      "penyebab": "Kulit kusam disebabkan oleh tingginya intensitas kulit sering terpapar sinar matahari, debu, dan polusi setiap harinya",
      "solusi": "Minyak zaitun mengandung lemak tak jenuh yang dapat menyegarkan dan menghidrasi kulit tanpa meninggalkan residu.",
      "rekomendasi": "Wardah White- Secret Pure Treatment Essence, Mineral Botanica Whitening Plus Complex Serum, For Skin’s Sake Vitamin C Serum"
    }
  ]
}